%YAML 1.1
%TAG !u! tag:unity3d.com,2011:
--- !u!114 &11400000
MonoBehaviour:
  m_ObjectHideFlags: 0
  m_CorrespondingSourceObject: {fileID: 0}
  m_PrefabInstance: {fileID: 0}
  m_PrefabAsset: {fileID: 0}
  m_GameObject: {fileID: 0}
  m_Enabled: 1
  m_EditorHideFlags: 0
  m_Script: {fileID: 11500000, guid: 0a6bdb0d013b8174985804fab4c49a01, type: 3}
  m_Name: Level 10
  m_EditorClassIdentifier: 
  decor:
  - {r: 0, g: 0.9568628, b: 1, a: 1}
  - {r: 1, g: 0.92549026, b: 0.8352942, a: 1}
  - {r: 0.8941177, g: 0.3921569, b: 0.3921569, a: 1}
  - {r: 0.87843144, g: 0.5568628, b: 0.5568628, a: 1}
  - {r: 1, g: 0, b: 0.098039225, a: 1}
  - {r: 0.92549026, g: 0.92549026, b: 0.92549026, a: 1}
  tileMap:
  - {r: 0.21586053, g: 0.000303527, b: 0.013702081, a: 1}
  - {r: 0.21586053, g: 0.000303527, b: 0.013702081, a: 1}
  - {r: 0.8113208, g: 0.80039406, b: 0.79983985, a: 1}
