%YAML 1.1
%TAG !u! tag:unity3d.com,2011:
--- !u!114 &11400000
MonoBehaviour:
  m_ObjectHideFlags: 0
  m_CorrespondingSourceObject: {fileID: 0}
  m_PrefabInstance: {fileID: 0}
  m_PrefabAsset: {fileID: 0}
  m_GameObject: {fileID: 0}
  m_Enabled: 1
  m_EditorHideFlags: 0
  m_Script: {fileID: 11500000, guid: 0a6bdb0d013b8174985804fab4c49a01, type: 3}
  m_Name: Level 8
  m_EditorClassIdentifier: 
  decor:
  - {r: 1, g: 0, b: 0, a: 1}
  - {r: 0.3019608, g: 0.6313726, b: 0.32941177, a: 1}
  - {r: 0.30588236, g: 0.46274513, b: 0.40000004, a: 1}
  - {r: 0.47058827, g: 0.62352943, b: 0.37254903, a: 1}
  - {r: 0.07450981, g: 0.92549026, b: 0.79215693, a: 1}
  - {r: 0.67058825, g: 0.91372555, b: 0.86274517, a: 1}
  tileMap:
  - {r: 0, g: 0.101960786, b: 0.08878782, a: 1}
  - {r: 0, g: 0.101960786, b: 0.08878782, a: 1}
  - {r: 0.8075828, g: 0.63403344, b: 0.9811321, a: 1}
