%YAML 1.1
%TAG !u! tag:unity3d.com,2011:
--- !u!114 &11400000
MonoBehaviour:
  m_ObjectHideFlags: 0
  m_CorrespondingSourceObject: {fileID: 0}
  m_PrefabInstance: {fileID: 0}
  m_PrefabAsset: {fileID: 0}
  m_GameObject: {fileID: 0}
  m_Enabled: 1
  m_EditorHideFlags: 0
  m_Script: {fileID: 11500000, guid: 0a6bdb0d013b8174985804fab4c49a01, type: 3}
  m_Name: Level 4
  m_EditorClassIdentifier: 
  decor:
  - {r: 1, g: 0.1254902, b: 0, a: 1}
  - {r: 0.73333335, g: 0.2509804, b: 0.6862745, a: 1}
  - {r: 0.61960787, g: 0, b: 1, a: 1}
  - {r: 0.58431375, g: 0.30588236, b: 0.6784314, a: 1}
  - {r: 0.6509804, g: 0.40784317, b: 0.64705884, a: 1}
  - {r: 0.9686275, g: 0.65882355, b: 0.44705886, a: 1}
  tileMap:
  - {r: 0.07618539, g: 0.4125427, b: 0.5840786, a: 1}
  - {r: 0.07657989, g: 0.41443235, b: 0.5856109, a: 1}
  - {r: 0.9911022, g: 0.9911022, b: 0.49693304, a: 1}
